bookName,author,quantity
Harry potter and the Chamber of secrets,J.K.Rowling,2
the portrait of a lady,Henry James,6
The Picture of Dorian Gray,Oscar Wilde,5
Pieces of light,Charles Fenry,10
The Fellowship of the ring,Tolkien,5
The Return of the King,Tolkien,5
The Two Towers,Tolkien,1
The Hobbit,Tolkien,9
The wings of the dove,Henry James,10
