-------------------------------------------------------------------------------
Test set: com.bookstore.dao.BookDAOTest
-------------------------------------------------------------------------------
Tests run: 2, Failures: 0, Errors: 0, Skipped: 0, Time elapsed: 0.287 sec
